План работы:
  * - начато
  ! - нужно доработать
  + - готово

  Страницы:
  + analytics.afdesign 
  + author_1920px.afdesign 
  + authors.afdesign 
  + index.afdesign
  *! rubrick_1.afdesign
  *! rubrick_2.afdesign

  (Завершенно:)
  +  content_big.afdesign
  +  content_small.afdesign
  

  Модули:
  + dropper.afdesign
  + modal_window.afdesign
  + search.afdesign
  advert.afdesign
 

  Блоки:
    Календарь
    http://c2n.me/3LLLUDp

    Аналитический обзор (analysis)
    + 1 http://clip2net.com/s/3LLjyti
    + 2 http://c2n.me/3LLk3a8
    + 3 http://c2n.me/3LLk5ud

    Обтравочный (clipping)
    + 1 http://c2n.me/3LLkoOw
    + 2 http://clip2net.com/s/3LLn68o

    Карточки-блоки
    + http://c2n.me/3LLmseO

    Мелкая карточка
    + http://clip2net.com/s/3LLmUaB

    Хронологическая линия
    + http://c2n.me/3LLHolC

    Подборка редакции 
    + http://c2n.me/3LLHvKU

    Перый материал рубрики:
    http://c2n.me/3LLMNLr

    Хронологическая линия (горизонтальный вариант)
    + http://c2n.me/3LLM5fF


    Главная информационная лента
    + http://c2n.me/3LLLPg8



    Материал по темам
    + http://c2n.me/3LLMeFo

 
  Доработки:
  - Добить респонсив в "горячей статье".






  - ui_kit_list.afdesign



    Аналитический обзор
    + 1 http://clip2net.com/s/3LLjyti
    + 2 http://c2n.me/3LLk3a8
    + 3 http://c2n.me/3LLk5ud

    Обравочный
    + 1 http://c2n.me/3LLkoOw
    + 2.http://clip2net.com/s/3LLn68o

    Карточки-блоки
    + 1 http://c2n.me/3LLmseO

    Малый блок
    + 1. http://clip2net.com/s/3LLmUaB



